tareaCasen
…
Se obtuvo un Resumen descriptivo y de frecuencias de variables
categóricas y la pendiente del modelo lineal

La pendiente de la recta de regresión es

## ing.comuna 
##    1179.98

Se procede con gráficos pertinentes poder comprender e ilustrar el
comportamiento y posible relación de el ingreso de las mujeres de la
región metropolitana dado un ranking de las comunas donde viven sobre la
riqueza de cada comuna.

## # A tibble: 52 × 3
##    ing.comuna comuna        cantidad
##         <int> <chr>            <int>
##  1          1 San Pedro           31
##  2          2 Padre Hurtado       82
##  3          3 Melipilla          164
##  4          4 Recoleta           251
##  5          5 Cerro Navia        207
##  6          6 Independencia      141
##  7          7 La Granja          225
##  8          8 María Pinto         98
##  9          9 Alhué               64
## 10         10 La Pintana         342
## # ℹ 42 more rows
…
